<?xml version="1.0" encoding="UTF-8" standalone="no"?>
<!-- Created with Inkscape (http://www.inkscape.org/) -->

<svg
   xmlns:dc="http://purl.org/dc/elements/1.1/"
   xmlns:cc="http://creativecommons.org/ns#"
   xmlns:rdf="http://www.w3.org/1999/02/22-rdf-syntax-ns#"
   xmlns:svg="http://www.w3.org/2000/svg"
   xmlns="http://www.w3.org/2000/svg"
   xmlns:sodipodi="http://sodipodi.sourceforge.net/DTD/sodipodi-0.dtd"
   xmlns:inkscape="http://www.inkscape.org/namespaces/inkscape"
   width="210mm"
   height="297mm"
   viewBox="0 0 744.09448819 1052.3622047"
   id="svg2"
   version="1.1"
   inkscape:version="0.91 r13725"
   sodipodi:docname="spin7.svg">
  <defs
     id="defs4">
    <marker
       inkscape:stockid="Arrow1Lend"
       orient="auto"
       refY="0"
       refX="0"
       id="marker12830"
       style="overflow:visible"
       inkscape:isstock="true">
      <path
         id="path12832"
         d="M 0,0 5,-5 -12.5,0 5,5 0,0 Z"
         style="fill:#cb2c1a;fill-opacity:1;fill-rule:evenodd;stroke:#cb2c1a;stroke-width:1pt;stroke-opacity:1"
         transform="matrix(-0.8,0,0,-0.8,-10,0)"
         inkscape:connector-curvature="0" />
    </marker>
    <marker
       inkscape:stockid="Arrow1Lend"
       orient="auto"
       refY="0"
       refX="0"
       id="marker12736"
       style="overflow:visible"
       inkscape:isstock="true">
      <path
         id="path12738"
         d="M 0,0 5,-5 -12.5,0 5,5 0,0 Z"
         style="fill:#cb2c1a;fill-opacity:1;fill-rule:evenodd;stroke:#cb2c1a;stroke-width:1pt;stroke-opacity:1"
         transform="matrix(-0.8,0,0,-0.8,-10,0)"
         inkscape:connector-curvature="0" />
    </marker>
    <marker
       inkscape:stockid="Arrow1Lend"
       orient="auto"
       refY="0"
       refX="0"
       id="marker12648"
       style="overflow:visible"
       inkscape:isstock="true">
      <path
         id="path12650"
         d="M 0,0 5,-5 -12.5,0 5,5 0,0 Z"
         style="fill:#cb2c1a;fill-opacity:1;fill-rule:evenodd;stroke:#cb2c1a;stroke-width:1pt;stroke-opacity:1"
         transform="matrix(-0.8,0,0,-0.8,-10,0)"
         inkscape:connector-curvature="0" />
    </marker>
    <marker
       inkscape:stockid="Arrow1Lend"
       orient="auto"
       refY="0"
       refX="0"
       id="marker12566"
       style="overflow:visible"
       inkscape:isstock="true">
      <path
         id="path12568"
         d="M 0,0 5,-5 -12.5,0 5,5 0,0 Z"
         style="fill:#cb2c1a;fill-opacity:1;fill-rule:evenodd;stroke:#cb2c1a;stroke-width:1pt;stroke-opacity:1"
         transform="matrix(-0.8,0,0,-0.8,-10,0)"
         inkscape:connector-curvature="0" />
    </marker>
    <marker
       inkscape:stockid="Arrow1Lend"
       orient="auto"
       refY="0"
       refX="0"
       id="marker12490"
       style="overflow:visible"
       inkscape:isstock="true">
      <path
         id="path12492"
         d="M 0,0 5,-5 -12.5,0 5,5 0,0 Z"
         style="fill:#cb2c1a;fill-opacity:1;fill-rule:evenodd;stroke:#cb2c1a;stroke-width:1pt;stroke-opacity:1"
         transform="matrix(-0.8,0,0,-0.8,-10,0)"
         inkscape:connector-curvature="0" />
    </marker>
    <marker
       inkscape:stockid="Arrow1Lend"
       orient="auto"
       refY="0"
       refX="0"
       id="marker12420"
       style="overflow:visible"
       inkscape:isstock="true">
      <path
         id="path12422"
         d="M 0,0 5,-5 -12.5,0 5,5 0,0 Z"
         style="fill:#cb2c1a;fill-opacity:1;fill-rule:evenodd;stroke:#cb2c1a;stroke-width:1pt;stroke-opacity:1"
         transform="matrix(-0.8,0,0,-0.8,-10,0)"
         inkscape:connector-curvature="0" />
    </marker>
    <marker
       inkscape:stockid="Arrow1Lend"
       orient="auto"
       refY="0"
       refX="0"
       id="marker12252"
       style="overflow:visible"
       inkscape:isstock="true">
      <path
         id="path12254"
         d="M 0,0 5,-5 -12.5,0 5,5 0,0 Z"
         style="fill:#cb2c1a;fill-opacity:1;fill-rule:evenodd;stroke:#cb2c1a;stroke-width:1pt;stroke-opacity:1"
         transform="matrix(-0.8,0,0,-0.8,-10,0)"
         inkscape:connector-curvature="0" />
    </marker>
    <marker
       inkscape:stockid="Arrow1Lend"
       orient="auto"
       refY="0"
       refX="0"
       id="marker12194"
       style="overflow:visible"
       inkscape:isstock="true">
      <path
         id="path12196"
         d="M 0,0 5,-5 -12.5,0 5,5 0,0 Z"
         style="fill:#cb2c1a;fill-opacity:1;fill-rule:evenodd;stroke:#cb2c1a;stroke-width:1pt;stroke-opacity:1"
         transform="matrix(-0.8,0,0,-0.8,-10,0)"
         inkscape:connector-curvature="0" />
    </marker>
    <marker
       inkscape:stockid="Arrow1Lend"
       orient="auto"
       refY="0.0"
       refX="0.0"
       id="marker10042"
       style="overflow:visible;"
       inkscape:isstock="true">
      <path
         id="path10044"
         d="M 0.0,0.0 L 5.0,-5.0 L -12.5,0.0 L 5.0,5.0 L 0.0,0.0 z "
         style="fill-rule:evenodd;stroke:#829e18;stroke-width:1pt;stroke-opacity:1;fill:#829e18;fill-opacity:1"
         transform="scale(0.8) rotate(180) translate(12.5,0)" />
    </marker>
    <marker
       inkscape:isstock="true"
       style="overflow:visible;"
       id="marker8980"
       refX="0.0"
       refY="0.0"
       orient="auto"
       inkscape:stockid="Arrow1Lend"
       inkscape:collect="always">
      <path
         transform="scale(0.8) rotate(180) translate(12.5,0)"
         style="fill-rule:evenodd;stroke:#829e18;stroke-width:1pt;stroke-opacity:1;fill:#829e18;fill-opacity:1"
         d="M 0.0,0.0 L 5.0,-5.0 L -12.5,0.0 L 5.0,5.0 L 0.0,0.0 z "
         id="path8982" />
    </marker>
    <marker
       inkscape:stockid="Arrow1Lstart"
       orient="auto"
       refY="0.0"
       refX="0.0"
       id="marker8946"
       style="overflow:visible"
       inkscape:isstock="true">
      <path
         id="path8948"
         d="M 0.0,0.0 L 5.0,-5.0 L -12.5,0.0 L 5.0,5.0 L 0.0,0.0 z "
         style="fill-rule:evenodd;stroke:#829e18;stroke-width:1pt;stroke-opacity:1;fill:#829e18;fill-opacity:1"
         transform="scale(0.8) translate(12.5,0)" />
    </marker>
    <marker
       inkscape:stockid="Arrow1Lstart"
       orient="auto"
       refY="0.0"
       refX="0.0"
       id="Arrow1Lstart"
       style="overflow:visible"
       inkscape:isstock="true">
      <path
         id="path4227"
         d="M 0.0,0.0 L 5.0,-5.0 L -12.5,0.0 L 5.0,5.0 L 0.0,0.0 z "
         style="fill-rule:evenodd;stroke:#90405f;stroke-width:1pt;stroke-opacity:1;fill:#90405f;fill-opacity:1"
         transform="scale(0.8) translate(12.5,0)" />
    </marker>
    <marker
       inkscape:stockid="Arrow1Lend"
       orient="auto"
       refY="0.0"
       refX="0.0"
       id="Arrow1Lend"
       style="overflow:visible;"
       inkscape:isstock="true"
       inkscape:collect="always">
      <path
         id="path4230"
         d="M 0.0,0.0 L 5.0,-5.0 L -12.5,0.0 L 5.0,5.0 L 0.0,0.0 z "
         style="fill-rule:evenodd;stroke:#90405f;stroke-width:1pt;stroke-opacity:1;fill:#90405f;fill-opacity:1"
         transform="scale(0.8) rotate(180) translate(12.5,0)" />
    </marker>
  </defs>
  <sodipodi:namedview
     id="base"
     pagecolor="#ffffff"
     bordercolor="#666666"
     borderopacity="1.0"
     inkscape:pageopacity="0.0"
     inkscape:pageshadow="2"
     inkscape:zoom="0.24748737"
     inkscape:cx="-71.825982"
     inkscape:cy="248.75917"
     inkscape:document-units="px"
     inkscape:current-layer="g8665"
     showgrid="false"
     inkscape:window-width="1280"
     inkscape:window-height="1002"
     inkscape:window-x="1912"
     inkscape:window-y="-8"
     inkscape:window-maximized="1"
     showguides="true"
     inkscape:guide-bbox="true">
    <sodipodi:guide
       position="102.85714,862.85716"
       orientation="1,0"
       id="guide11709" />
  </sodipodi:namedview>
  <metadata
     id="metadata7">
    <rdf:RDF>
      <cc:Work
         rdf:about="">
        <dc:format>image/svg+xml</dc:format>
        <dc:type
           rdf:resource="http://purl.org/dc/dcmitype/StillImage" />
        <dc:title />
      </cc:Work>
    </rdf:RDF>
  </metadata>
  <g
     inkscape:label="Capa 1"
     inkscape:groupmode="layer"
     id="layer1">
    <g
       id="g8665">
      <g
         id="g8687"
         transform="matrix(0.8188113,-0.57406276,0.57406276,0.8188113,12.95805,203.58855)">
        <path
           style="fill:none;fill-rule:evenodd;stroke:#90405f;stroke-width:2.0999999;stroke-linecap:round;stroke-linejoin:miter;stroke-miterlimit:4;stroke-dasharray:none;stroke-opacity:1;marker-end:url(#Arrow1Lend)"
           d="M 74.938823,179.08291 157.61982,57.467018"
           id="path4703"
           inkscape:connector-curvature="0"
           sodipodi:nodetypes="cc" />
        <path
           style="fill:#f6e9e9;fill-opacity:1;fill-rule:evenodd;stroke:#90405f;stroke-width:4.44399977;stroke-linecap:square;stroke-linejoin:miter;stroke-miterlimit:4;stroke-dasharray:none;stroke-dashoffset:0;stroke-opacity:1"
           d="M 155.71428,123.79078 A 42.857143,42.857143 0 0 1 112.85714,166.64792 42.857143,42.857143 0 0 1 69.999996,123.79078 42.857143,42.857143 0 0 1 112.85714,80.933636 42.857143,42.857143 0 0 1 155.71428,123.79078 Z"
           id="path3336" />
      </g>
      <g
         id="g8699"
         transform="matrix(0.82048727,-0.5716648,0.5716648,0.82048727,182.20995,290.49045)">
        <path
           sodipodi:nodetypes="cc"
           inkscape:connector-curvature="0"
           id="path8701"
           d="M 74.938823,179.08291 157.61982,57.467018"
           style="fill:none;fill-rule:evenodd;stroke:#90405f;stroke-width:2.0999999;stroke-linecap:round;stroke-linejoin:miter;stroke-miterlimit:4;stroke-dasharray:none;stroke-opacity:1;marker-end:url(#Arrow1Lend)" />
        <path
           style="fill:#f6e9e9;fill-opacity:1;fill-rule:evenodd;stroke:#90405f;stroke-width:4.44399977;stroke-linecap:square;stroke-linejoin:miter;stroke-miterlimit:4;stroke-dasharray:none;stroke-dashoffset:0;stroke-opacity:1"
           d="M 155.71428,123.79078 A 42.857143,42.857143 0 0 1 112.85714,166.64792 42.857143,42.857143 0 0 1 69.999996,123.79078 42.857143,42.857143 0 0 1 112.85714,80.933636 42.857143,42.857143 0 0 1 155.71428,123.79078 Z"
           id="circle8703" />
      </g>
      <g
         transform="matrix(0.81100354,-0.58504125,0.58504125,0.81100354,307.71506,201.53999)"
         id="g8705">
        <path
           style="fill:none;fill-rule:evenodd;stroke:#90405f;stroke-width:2.0999999;stroke-linecap:round;stroke-linejoin:miter;stroke-miterlimit:4;stroke-dasharray:none;stroke-opacity:1;marker-end:url(#Arrow1Lend)"
           d="M 74.938823,179.08291 157.61982,57.467018"
           id="path8707"
           inkscape:connector-curvature="0"
           sodipodi:nodetypes="cc" />
        <path
           style="fill:#f6e9e9;fill-opacity:1;fill-rule:evenodd;stroke:#90405f;stroke-width:4.44399977;stroke-linecap:square;stroke-linejoin:miter;stroke-miterlimit:4;stroke-dasharray:none;stroke-dashoffset:0;stroke-opacity:1"
           d="M 155.71428,123.79078 A 42.857143,42.857143 0 0 1 112.85714,166.64792 42.857143,42.857143 0 0 1 69.999996,123.79078 42.857143,42.857143 0 0 1 112.85714,80.933636 42.857143,42.857143 0 0 1 155.71428,123.79078 Z"
           id="circle8709" />
      </g>
      <g
         id="g8711"
         transform="matrix(0.81765463,-0.57570904,0.57570904,0.81765463,460.42474,208.93124)">
        <path
           sodipodi:nodetypes="cc"
           inkscape:connector-curvature="0"
           id="path8713"
           d="M 74.938823,179.08291 157.61982,57.467018"
           style="fill:none;fill-rule:evenodd;stroke:#90405f;stroke-width:2.0999999;stroke-linecap:round;stroke-linejoin:miter;stroke-miterlimit:4;stroke-dasharray:none;stroke-opacity:1;marker-end:url(#Arrow1Lend)" />
        <path
           style="fill:#f6e9e9;fill-opacity:1;fill-rule:evenodd;stroke:#90405f;stroke-width:4.44399977;stroke-linecap:square;stroke-linejoin:miter;stroke-miterlimit:4;stroke-dasharray:none;stroke-dashoffset:0;stroke-opacity:1"
           d="M 155.71428,123.79078 A 42.857143,42.857143 0 0 1 112.85714,166.64792 42.857143,42.857143 0 0 1 69.999996,123.79078 42.857143,42.857143 0 0 1 112.85714,80.933636 42.857143,42.857143 0 0 1 155.71428,123.79078 Z"
           id="circle8715" />
      </g>
      <g
         transform="matrix(-0.81838127,0.57467564,-0.57467564,-0.81838127,860.8908,448.45669)"
         id="g8717">
        <path
           style="fill:none;fill-rule:evenodd;stroke:#90405f;stroke-width:2.0999999;stroke-linecap:round;stroke-linejoin:miter;stroke-miterlimit:4;stroke-dasharray:none;stroke-opacity:1;marker-end:url(#Arrow1Lend)"
           d="M 74.938823,179.08291 157.61982,57.467018"
           id="path8719"
           inkscape:connector-curvature="0"
           sodipodi:nodetypes="cc" />
        <path
           style="fill:#f6e9e9;fill-opacity:1;fill-rule:evenodd;stroke:#90405f;stroke-width:4.44399977;stroke-linecap:square;stroke-linejoin:miter;stroke-miterlimit:4;stroke-dasharray:none;stroke-dashoffset:0;stroke-opacity:1"
           d="M 155.71428,123.79078 A 42.857143,42.857143 0 0 1 112.85714,166.64792 42.857143,42.857143 0 0 1 69.999996,123.79078 42.857143,42.857143 0 0 1 112.85714,80.933636 42.857143,42.857143 0 0 1 155.71428,123.79078 Z"
           id="circle8721" />
      </g>
      <g
         id="g8723"
         transform="matrix(0.8194499,-0.57315081,0.57315081,0.8194499,400.75544,420.38885)">
        <path
           sodipodi:nodetypes="cc"
           inkscape:connector-curvature="0"
           id="path8725"
           d="M 74.938823,179.08291 157.61982,57.467018"
           style="fill:none;fill-rule:evenodd;stroke:#90405f;stroke-width:2.0999999;stroke-linecap:round;stroke-linejoin:miter;stroke-miterlimit:4;stroke-dasharray:none;stroke-opacity:1;marker-end:url(#Arrow1Lend)" />
        <path
           style="fill:#f6e9e9;fill-opacity:1;fill-rule:evenodd;stroke:#90405f;stroke-width:4.44399977;stroke-linecap:square;stroke-linejoin:miter;stroke-miterlimit:4;stroke-dasharray:none;stroke-dashoffset:0;stroke-opacity:1"
           d="M 155.71428,123.79078 A 42.857143,42.857143 0 0 1 112.85714,166.64792 42.857143,42.857143 0 0 1 69.999996,123.79078 42.857143,42.857143 0 0 1 112.85714,80.933636 42.857143,42.857143 0 0 1 155.71428,123.79078 Z"
           id="circle8727" />
      </g>
      <g
         transform="matrix(0.8413489,-0.5404924,0.5404924,0.8413489,265.03052,408.26779)"
         id="g8729">
        <path
           style="fill:none;fill-rule:evenodd;stroke:#90405f;stroke-width:2.0999999;stroke-linecap:round;stroke-linejoin:miter;stroke-miterlimit:4;stroke-dasharray:none;stroke-opacity:1;marker-end:url(#Arrow1Lend)"
           d="M 74.938823,179.08291 157.61982,57.467018"
           id="path8731"
           inkscape:connector-curvature="0"
           sodipodi:nodetypes="cc" />
        <path
           style="fill:#f6e9e9;fill-opacity:1;fill-rule:evenodd;stroke:#90405f;stroke-width:4.44399977;stroke-linecap:square;stroke-linejoin:miter;stroke-miterlimit:4;stroke-dasharray:none;stroke-dashoffset:0;stroke-opacity:1"
           d="M 155.71428,123.79078 A 42.857143,42.857143 0 0 1 112.85714,166.64792 42.857143,42.857143 0 0 1 69.999996,123.79078 42.857143,42.857143 0 0 1 112.85714,80.933636 42.857143,42.857143 0 0 1 155.71428,123.79078 Z"
           id="circle8733" />
      </g>
      <g
         id="g8735"
         transform="matrix(-0.83850435,0.54489489,-0.54489489,-0.83850435,459.42971,492.73516)">
        <path
           sodipodi:nodetypes="cc"
           inkscape:connector-curvature="0"
           id="path8737"
           d="M 74.938823,179.08291 157.61982,57.467018"
           style="fill:none;fill-rule:evenodd;stroke:#90405f;stroke-width:2.0999999;stroke-linecap:round;stroke-linejoin:miter;stroke-miterlimit:4;stroke-dasharray:none;stroke-opacity:1;marker-end:url(#Arrow1Lend)" />
        <path
           style="fill:#f6e9e9;fill-opacity:1;fill-rule:evenodd;stroke:#90405f;stroke-width:4.44399977;stroke-linecap:square;stroke-linejoin:miter;stroke-miterlimit:4;stroke-dasharray:none;stroke-dashoffset:0;stroke-opacity:1"
           d="M 155.71428,123.79078 A 42.857143,42.857143 0 0 1 112.85714,166.64792 42.857143,42.857143 0 0 1 69.999996,123.79078 42.857143,42.857143 0 0 1 112.85714,80.933636 42.857143,42.857143 0 0 1 155.71428,123.79078 Z"
           id="circle8739" />
      </g>
      <g
         transform="matrix(0.80130662,-0.59825386,0.59825386,0.80130662,22.692083,422.72382)"
         id="g8741">
        <path
           style="fill:none;fill-rule:evenodd;stroke:#90405f;stroke-width:2.0999999;stroke-linecap:round;stroke-linejoin:miter;stroke-miterlimit:4;stroke-dasharray:none;stroke-opacity:1;marker-end:url(#Arrow1Lend)"
           d="M 74.938823,179.08291 157.61982,57.467018"
           id="path8743"
           inkscape:connector-curvature="0"
           sodipodi:nodetypes="cc" />
        <path
           style="fill:#f6e9e9;fill-opacity:1;fill-rule:evenodd;stroke:#90405f;stroke-width:4.44399977;stroke-linecap:square;stroke-linejoin:miter;stroke-miterlimit:4;stroke-dasharray:none;stroke-dashoffset:0;stroke-opacity:1"
           d="M 155.71428,123.79078 A 42.857143,42.857143 0 0 1 112.85714,166.64792 42.857143,42.857143 0 0 1 69.999996,123.79078 42.857143,42.857143 0 0 1 112.85714,80.933636 42.857143,42.857143 0 0 1 155.71428,123.79078 Z"
           id="circle8745" />
      </g>
      <g
         id="g8747"
         transform="matrix(-0.80623815,0.59159111,-0.59159111,-0.80623815,463.41416,773.29918)">
        <path
           sodipodi:nodetypes="cc"
           inkscape:connector-curvature="0"
           id="path8749"
           d="M 74.938823,179.08291 157.61982,57.467018"
           style="fill:none;fill-rule:evenodd;stroke:#90405f;stroke-width:2.0999999;stroke-linecap:round;stroke-linejoin:miter;stroke-miterlimit:4;stroke-dasharray:none;stroke-opacity:1;marker-end:url(#Arrow1Lend)" />
        <path
           style="fill:#f6e9e9;fill-opacity:1;fill-rule:evenodd;stroke:#90405f;stroke-width:4.44399977;stroke-linecap:square;stroke-linejoin:miter;stroke-miterlimit:4;stroke-dasharray:none;stroke-dashoffset:0;stroke-opacity:1"
           d="M 155.71428,123.79078 A 42.857143,42.857143 0 0 1 112.85714,166.64792 42.857143,42.857143 0 0 1 69.999996,123.79078 42.857143,42.857143 0 0 1 112.85714,80.933636 42.857143,42.857143 0 0 1 155.71428,123.79078 Z"
           id="circle8751" />
      </g>
      <g
         transform="matrix(0.81480406,-0.57973644,0.57973644,0.81480406,22.888652,604.60405)"
         id="g8753">
        <path
           style="fill:none;fill-rule:evenodd;stroke:#90405f;stroke-width:2.0999999;stroke-linecap:round;stroke-linejoin:miter;stroke-miterlimit:4;stroke-dasharray:none;stroke-opacity:1;marker-end:url(#Arrow1Lend)"
           d="M 74.938823,179.08291 157.61982,57.467018"
           id="path8755"
           inkscape:connector-curvature="0"
           sodipodi:nodetypes="cc" />
        <path
           style="fill:#f6e9e9;fill-opacity:1;fill-rule:evenodd;stroke:#90405f;stroke-width:4.44399977;stroke-linecap:square;stroke-linejoin:miter;stroke-miterlimit:4;stroke-dasharray:none;stroke-dashoffset:0;stroke-opacity:1"
           d="M 155.71428,123.79078 A 42.857143,42.857143 0 0 1 112.85714,166.64792 42.857143,42.857143 0 0 1 69.999996,123.79078 42.857143,42.857143 0 0 1 112.85714,80.933636 42.857143,42.857143 0 0 1 155.71428,123.79078 Z"
           id="circle8757" />
      </g>
      <g
         id="g8759"
         transform="matrix(0.79632741,-0.60486582,0.60486582,0.79632741,219.40952,582.69328)">
        <path
           sodipodi:nodetypes="cc"
           inkscape:connector-curvature="0"
           id="path8761"
           d="M 74.938823,179.08291 157.61982,57.467018"
           style="fill:none;fill-rule:evenodd;stroke:#90405f;stroke-width:2.0999999;stroke-linecap:round;stroke-linejoin:miter;stroke-miterlimit:4;stroke-dasharray:none;stroke-opacity:1;marker-end:url(#Arrow1Lend)" />
        <path
           style="fill:#f6e9e9;fill-opacity:1;fill-rule:evenodd;stroke:#90405f;stroke-width:4.44399977;stroke-linecap:square;stroke-linejoin:miter;stroke-miterlimit:4;stroke-dasharray:none;stroke-dashoffset:0;stroke-opacity:1"
           d="M 155.71428,123.79078 A 42.857143,42.857143 0 0 1 112.85714,166.64792 42.857143,42.857143 0 0 1 69.999996,123.79078 42.857143,42.857143 0 0 1 112.85714,80.933636 42.857143,42.857143 0 0 1 155.71428,123.79078 Z"
           id="circle8763" />
      </g>
      <g
         transform="matrix(0.79537414,-0.60611878,0.60611878,0.79537414,332.61865,701.2189)"
         id="g8765"
         inkscape:transform-center-x="-0.74279472"
         inkscape:transform-center-y="-5.8011087">
        <path
           style="fill:none;fill-rule:evenodd;stroke:#90405f;stroke-width:2.0999999;stroke-linecap:round;stroke-linejoin:miter;stroke-miterlimit:4;stroke-dasharray:none;stroke-opacity:1;marker-end:url(#Arrow1Lend)"
           d="M 74.938823,179.08291 157.61982,57.467018"
           id="path8767"
           inkscape:connector-curvature="0"
           sodipodi:nodetypes="cc" />
        <path
           style="fill:#f6e9e9;fill-opacity:1;fill-rule:evenodd;stroke:#90405f;stroke-width:4.44399977;stroke-linecap:square;stroke-linejoin:miter;stroke-miterlimit:4;stroke-dasharray:none;stroke-dashoffset:0;stroke-opacity:1"
           d="M 155.71428,123.79078 A 42.857143,42.857143 0 0 1 112.85714,166.64792 42.857143,42.857143 0 0 1 69.999996,123.79078 42.857143,42.857143 0 0 1 112.85714,80.933636 42.857143,42.857143 0 0 1 155.71428,123.79078 Z"
           id="circle8769" />
      </g>
      <g
         id="g8771"
         transform="matrix(-0.82876682,0.5595941,-0.5595941,-0.82876682,863.66588,718.10051)">
        <path
           sodipodi:nodetypes="cc"
           inkscape:connector-curvature="0"
           id="path8773"
           d="M 74.938823,179.08291 157.61982,57.467018"
           style="fill:none;fill-rule:evenodd;stroke:#90405f;stroke-width:2.0999999;stroke-linecap:round;stroke-linejoin:miter;stroke-miterlimit:4;stroke-dasharray:none;stroke-opacity:1;marker-end:url(#Arrow1Lend)" />
        <path
           style="fill:#f6e9e9;fill-opacity:1;fill-rule:evenodd;stroke:#90405f;stroke-width:4.44399977;stroke-linecap:square;stroke-linejoin:miter;stroke-miterlimit:4;stroke-dasharray:none;stroke-dashoffset:0;stroke-opacity:1"
           d="M 155.71428,123.79078 A 42.857143,42.857143 0 0 1 112.85714,166.64792 42.857143,42.857143 0 0 1 69.999996,123.79078 42.857143,42.857143 0 0 1 112.85714,80.933636 42.857143,42.857143 0 0 1 155.71428,123.79078 Z"
           id="circle8775" />
      </g>
      <g
         transform="matrix(-0.81643306,0.57744009,-0.57744009,-0.81643306,730.06681,638.66405)"
         id="g8777">
        <path
           style="fill:none;fill-rule:evenodd;stroke:#90405f;stroke-width:2.0999999;stroke-linecap:round;stroke-linejoin:miter;stroke-miterlimit:4;stroke-dasharray:none;stroke-opacity:1;marker-end:url(#Arrow1Lend)"
           d="M 74.938823,179.08291 157.61982,57.467018"
           id="path8779"
           inkscape:connector-curvature="0"
           sodipodi:nodetypes="cc" />
        <path
           style="fill:#f6e9e9;fill-opacity:1;fill-rule:evenodd;stroke:#90405f;stroke-width:4.44399977;stroke-linecap:square;stroke-linejoin:miter;stroke-miterlimit:4;stroke-dasharray:none;stroke-dashoffset:0;stroke-opacity:1"
           d="M 155.71428,123.79078 A 42.857143,42.857143 0 0 1 112.85714,166.64792 42.857143,42.857143 0 0 1 69.999996,123.79078 42.857143,42.857143 0 0 1 112.85714,80.933636 42.857143,42.857143 0 0 1 155.71428,123.79078 Z"
           id="circle8781" />
      </g>
      <g
         id="g11664">
        <g
           id="g11612">
          <path
             inkscape:connector-curvature="0"
             id="path10040"
             d="m 97.857144,880.93363 0,156.22487"
             style="fill:none;fill-rule:evenodd;stroke:#829e18;stroke-width:12.7;stroke-linecap:butt;stroke-linejoin:miter;stroke-miterlimit:4;stroke-dasharray:none;stroke-opacity:1" />
          <path
             style="fill:none;fill-rule:evenodd;stroke:#829e18;stroke-width:5.0999999;stroke-linecap:butt;stroke-linejoin:miter;stroke-miterlimit:4;stroke-dasharray:none;stroke-opacity:1;marker-end:url(#marker8980)"
             d="m 97.871736,839.80072 0.0362,-12.06615"
             id="path8824"
             inkscape:connector-curvature="0" />
        </g>
        <g
           transform="translate(67.321435,0)"
           id="g11616">
          <path
             style="fill:none;fill-rule:evenodd;stroke:#829e18;stroke-width:12.69999981;stroke-linecap:butt;stroke-linejoin:miter;stroke-miterlimit:4;stroke-dasharray:none;stroke-opacity:1"
             d="m 97.857144,880.93363 0,156.22487"
             id="path11618"
             inkscape:connector-curvature="0" />
          <path
             inkscape:connector-curvature="0"
             id="path11620"
             d="m 97.871736,839.80072 0.0362,-12.06615"
             style="fill:none;fill-rule:evenodd;stroke:#829e18;stroke-width:5.0999999;stroke-linecap:butt;stroke-linejoin:miter;stroke-miterlimit:4;stroke-dasharray:none;stroke-opacity:1;marker-end:url(#marker8980)" />
        </g>
        <g
           id="g11622"
           transform="translate(134.64286,0)">
          <path
             inkscape:connector-curvature="0"
             id="path11624"
             d="m 97.857144,880.93363 0,156.22487"
             style="fill:none;fill-rule:evenodd;stroke:#829e18;stroke-width:12.69999981;stroke-linecap:butt;stroke-linejoin:miter;stroke-miterlimit:4;stroke-dasharray:none;stroke-opacity:1" />
          <path
             style="fill:none;fill-rule:evenodd;stroke:#829e18;stroke-width:5.0999999;stroke-linecap:butt;stroke-linejoin:miter;stroke-miterlimit:4;stroke-dasharray:none;stroke-opacity:1;marker-end:url(#marker8980)"
             d="m 97.871736,839.80072 0.0362,-12.06615"
             id="path11626"
             inkscape:connector-curvature="0" />
        </g>
        <g
           transform="translate(201.9643,0)"
           id="g11628">
          <path
             style="fill:none;fill-rule:evenodd;stroke:#829e18;stroke-width:12.69999981;stroke-linecap:butt;stroke-linejoin:miter;stroke-miterlimit:4;stroke-dasharray:none;stroke-opacity:1"
             d="m 97.857144,880.93363 0,156.22487"
             id="path11630"
             inkscape:connector-curvature="0" />
          <path
             inkscape:connector-curvature="0"
             id="path11632"
             d="m 97.871736,839.80072 0.0362,-12.06615"
             style="fill:none;fill-rule:evenodd;stroke:#829e18;stroke-width:5.0999999;stroke-linecap:butt;stroke-linejoin:miter;stroke-miterlimit:4;stroke-dasharray:none;stroke-opacity:1;marker-end:url(#marker8980)" />
        </g>
        <g
           id="g11634"
           transform="translate(269.28574,0)">
          <path
             inkscape:connector-curvature="0"
             id="path11636"
             d="m 97.857144,880.93363 0,156.22487"
             style="fill:none;fill-rule:evenodd;stroke:#829e18;stroke-width:12.69999981;stroke-linecap:butt;stroke-linejoin:miter;stroke-miterlimit:4;stroke-dasharray:none;stroke-opacity:1" />
          <path
             style="fill:none;fill-rule:evenodd;stroke:#829e18;stroke-width:5.0999999;stroke-linecap:butt;stroke-linejoin:miter;stroke-miterlimit:4;stroke-dasharray:none;stroke-opacity:1;marker-end:url(#marker8980)"
             d="m 97.871736,839.80072 0.0362,-12.06615"
             id="path11638"
             inkscape:connector-curvature="0" />
        </g>
        <g
           transform="translate(336.60718,0)"
           id="g11640">
          <path
             style="fill:none;fill-rule:evenodd;stroke:#829e18;stroke-width:12.69999981;stroke-linecap:butt;stroke-linejoin:miter;stroke-miterlimit:4;stroke-dasharray:none;stroke-opacity:1"
             d="m 97.857144,880.93363 0,156.22487"
             id="path11642"
             inkscape:connector-curvature="0" />
          <path
             inkscape:connector-curvature="0"
             id="path11644"
             d="m 97.871736,839.80072 0.0362,-12.06615"
             style="fill:none;fill-rule:evenodd;stroke:#829e18;stroke-width:5.0999999;stroke-linecap:butt;stroke-linejoin:miter;stroke-miterlimit:4;stroke-dasharray:none;stroke-opacity:1;marker-end:url(#marker8980)" />
        </g>
        <g
           id="g11646"
           transform="translate(403.92859,0)">
          <path
             inkscape:connector-curvature="0"
             id="path11648"
             d="m 97.857144,880.93363 0,156.22487"
             style="fill:none;fill-rule:evenodd;stroke:#829e18;stroke-width:12.69999981;stroke-linecap:butt;stroke-linejoin:miter;stroke-miterlimit:4;stroke-dasharray:none;stroke-opacity:1" />
          <path
             style="fill:none;fill-rule:evenodd;stroke:#829e18;stroke-width:5.0999999;stroke-linecap:butt;stroke-linejoin:miter;stroke-miterlimit:4;stroke-dasharray:none;stroke-opacity:1;marker-end:url(#marker8980)"
             d="m 97.871736,839.80072 0.0362,-12.06615"
             id="path11650"
             inkscape:connector-curvature="0" />
        </g>
        <g
           transform="translate(471.25003,0)"
           id="g11652">
          <path
             style="fill:none;fill-rule:evenodd;stroke:#829e18;stroke-width:12.69999981;stroke-linecap:butt;stroke-linejoin:miter;stroke-miterlimit:4;stroke-dasharray:none;stroke-opacity:1"
             d="m 97.857144,880.93363 0,156.22487"
             id="path11654"
             inkscape:connector-curvature="0" />
          <path
             inkscape:connector-curvature="0"
             id="path11656"
             d="m 97.871736,839.80072 0.0362,-12.06615"
             style="fill:none;fill-rule:evenodd;stroke:#829e18;stroke-width:5.0999999;stroke-linecap:butt;stroke-linejoin:miter;stroke-miterlimit:4;stroke-dasharray:none;stroke-opacity:1;marker-end:url(#marker8980)" />
        </g>
        <g
           id="g11658"
           transform="translate(538.57144,0)">
          <path
             inkscape:connector-curvature="0"
             id="path11660"
             d="m 97.857144,880.93363 0,156.22487"
             style="fill:none;fill-rule:evenodd;stroke:#829e18;stroke-width:12.69999981;stroke-linecap:butt;stroke-linejoin:miter;stroke-miterlimit:4;stroke-dasharray:none;stroke-opacity:1" />
          <path
             style="fill:none;fill-rule:evenodd;stroke:#829e18;stroke-width:5.0999999;stroke-linecap:butt;stroke-linejoin:miter;stroke-miterlimit:4;stroke-dasharray:none;stroke-opacity:1;marker-end:url(#marker8980)"
             d="m 97.871736,839.80072 0.0362,-12.06615"
             id="path11662"
             inkscape:connector-curvature="0" />
        </g>
      </g>
      <flowRoot
         xml:space="preserve"
         id="flowRoot11693"
         style="fill:black;stroke:none;stroke-opacity:1;stroke-width:1px;stroke-linejoin:miter;stroke-linecap:butt;fill-opacity:1;font-family:'UPF Futura ND';font-style:normal;font-weight:normal;font-size:40px;line-height:125%;letter-spacing:0px;word-spacing:0px;-inkscape-font-specification:'UPF Futura ND';font-stretch:normal;font-variant:normal;"><flowRegion
           id="flowRegion11695"><rect
             id="rect11697"
             width="734.28571"
             height="292.85715"
             x="-21.428572"
             y="680.93365"
             style="-inkscape-font-specification:'UPF Futura ND';font-family:'UPF Futura ND';font-weight:normal;font-style:normal;font-stretch:normal;font-variant:normal;" /></flowRegion><flowPara
           id="flowPara11699" /></flowRoot>      <g
         style="font-style:normal;font-variant:normal;font-weight:normal;font-stretch:normal;font-size:23.01150513px;line-height:125%;font-family:'UPF Futura ND';-inkscape-font-specification:'UPF Futura ND';letter-spacing:0px;word-spacing:0px;fill:#5a403a;fill-opacity:1;stroke:none;stroke-width:1px;stroke-linecap:butt;stroke-linejoin:miter;stroke-opacity:1"
         id="text16554">
        <path
           d="m 160.37027,228.34213 0,15.5395 4.77533,0 0,1.80901 -6.71918,0 0,-17.34851 1.94385,0 z"
           style=""
           id="path4474" />
        <path
           d="m 166.55011,240.22991 q 0,-2.31464 1.67418,-3.95511 1.67418,-1.64047 4.03375,-1.64047 2.40453,0 4.05623,1.65171 1.65171,1.64047 1.65171,4.03375 0,2.41576 -1.66294,4.045 -1.62924,1.62923 -4.08994,1.62923 -2.39329,0 -4.02252,-1.66294 -1.64047,-1.67418 -1.64047,-4.10117 z m 1.88766,0.0337 q 0,1.79778 1.0562,2.92139 1.06743,1.13484 2.71913,1.13484 1.69665,0 2.77531,-1.11237 1.0899,-1.12361 1.0899,-2.88768 0,-1.74159 -1.07866,-2.87643 -1.07867,-1.12361 -2.76408,-1.12361 -1.61799,0 -2.71913,1.13484 -1.07867,1.13485 -1.07867,2.80902 z"
           style=""
           id="path4476" />
        <path
           d="m 180.8986,234.88153 3.20228,7.31469 3.35959,-8.14616 3.37083,8.14616 3.23599,-7.31469 2.07867,0 -5.34837,11.5507 -3.33712,-8.04504 -3.34835,8.04504 -5.30344,-11.5507 2.08992,0 z"
           style=""
           id="path4478" />
      </g>
      <flowRoot
         xml:space="preserve"
         id="flowRoot11727"
         style="fill:black;stroke:none;stroke-opacity:1;stroke-width:1px;stroke-linejoin:miter;stroke-linecap:butt;fill-opacity:1;font-family:sans-serif;font-style:normal;font-weight:normal;font-size:40px;line-height:125%;letter-spacing:0px;word-spacing:0px"><flowRegion
           id="flowRegion11729"><rect
             id="rect11731"
             width="440"
             height="377.14285"
             x="-581.42859"
             y="-211.92351" /></flowRegion><flowPara
           id="flowPara11733" /></flowRoot>      <g
         style="font-style:normal;font-variant:normal;font-weight:normal;font-stretch:normal;font-size:23.01150513px;line-height:125%;font-family:'UPF Futura ND';-inkscape-font-specification:'UPF Futura ND';letter-spacing:0px;word-spacing:0px;fill:#5a403a;fill-opacity:1;stroke:none;stroke-width:1px;stroke-linecap:butt;stroke-linejoin:miter;stroke-opacity:1"
         id="text16548">
        <path
           d="m 451.79882,228.34213 0,15.5395 4.77534,0 0,1.80901 -6.71918,0 0,-17.34851 1.94384,0 z"
           style=""
           id="path4467" />
        <path
           d="m 457.97867,240.22991 q 0,-2.31464 1.67418,-3.95511 1.67417,-1.64047 4.03375,-1.64047 2.40453,0 4.05623,1.65171 1.6517,1.64047 1.6517,4.03375 0,2.41576 -1.66294,4.045 -1.62923,1.62923 -4.08993,1.62923 -2.39329,0 -4.02252,-1.66294 -1.64047,-1.67418 -1.64047,-4.10117 z m 1.88766,0.0337 q 0,1.79778 1.0562,2.92139 1.06742,1.13484 2.71913,1.13484 1.69665,0 2.77531,-1.11237 1.0899,-1.12361 1.0899,-2.88768 0,-1.74159 -1.07866,-2.87643 -1.07867,-1.12361 -2.76408,-1.12361 -1.618,0 -2.71913,1.13484 -1.07867,1.13485 -1.07867,2.80902 z"
           style=""
           id="path4469" />
        <path
           d="m 472.32715,234.88153 3.20229,7.31469 3.35959,-8.14616 3.37082,8.14616 3.236,-7.31469 2.07867,0 -5.34837,11.5507 -3.33712,-8.04504 -3.34836,8.04504 -5.30343,-11.5507 2.08991,0 z"
           style=""
           id="path4471" />
      </g>
      <g
         style="font-style:normal;font-variant:normal;font-weight:normal;font-stretch:normal;font-size:23.01150513px;line-height:125%;font-family:'UPF Futura ND';-inkscape-font-specification:'UPF Futura ND';letter-spacing:0px;word-spacing:0px;fill:#5a403a;fill-opacity:1;stroke:none;stroke-width:1px;stroke-linecap:butt;stroke-linejoin:miter;stroke-opacity:1"
         id="text16542">
        <path
           d="m 603.22738,232.62785 0,15.5395 4.77534,0 0,1.80901 -6.71918,0 0,-17.34851 1.94384,0 z"
           style=""
           id="path4460" />
        <path
           d="m 609.40723,244.51563 q 0,-2.31464 1.67418,-3.95511 1.67417,-1.64046 4.03375,-1.64046 2.40452,0 4.05623,1.6517 1.6517,1.64047 1.6517,4.03375 0,2.41576 -1.66294,4.045 -1.62923,1.62923 -4.08993,1.62923 -2.39329,0 -4.02252,-1.66294 -1.64047,-1.67418 -1.64047,-4.10117 z m 1.88766,0.0337 q 0,1.79778 1.05619,2.92139 1.06743,1.13484 2.71914,1.13484 1.69665,0 2.77531,-1.11237 1.0899,-1.12361 1.0899,-2.88768 0,-1.74159 -1.07866,-2.87643 -1.07867,-1.12361 -2.76408,-1.12361 -1.618,0 -2.71913,1.13484 -1.07867,1.13485 -1.07867,2.80902 z"
           style=""
           id="path4462" />
        <path
           d="m 623.75571,239.16725 3.20229,7.31469 3.35959,-8.14616 3.37082,8.14616 3.236,-7.31469 2.07867,0 -5.34838,11.5507 -3.33711,-8.04504 -3.34836,8.04504 -5.30343,-11.5507 2.08991,0 z"
           style=""
           id="path4464" />
      </g>
      <g
         style="font-style:normal;font-variant:normal;font-weight:normal;font-stretch:normal;font-size:23.01150513px;line-height:125%;font-family:'UPF Futura ND';-inkscape-font-specification:'UPF Futura ND';letter-spacing:0px;word-spacing:0px;fill:#5a403a;fill-opacity:1;stroke:none;stroke-width:1px;stroke-linecap:butt;stroke-linejoin:miter;stroke-opacity:1"
         id="text16536">
        <path
           d="m 323.22741,318.34213 0,15.5395 4.77534,0 0,1.80901 -6.71918,0 0,-17.34851 1.94384,0 z"
           style=""
           id="path4453" />
        <path
           d="m 329.40726,330.22991 q 0,-2.31464 1.67418,-3.95511 1.67417,-1.64047 4.03375,-1.64047 2.40452,0 4.05623,1.65171 1.6517,1.64047 1.6517,4.03375 0,2.41576 -1.66294,4.045 -1.62923,1.62923 -4.08993,1.62923 -2.39329,0 -4.02252,-1.66294 -1.64047,-1.67418 -1.64047,-4.10117 z m 1.88766,0.0337 q 0,1.79778 1.05619,2.92139 1.06743,1.13484 2.71914,1.13484 1.69665,0 2.77531,-1.11237 1.0899,-1.12361 1.0899,-2.88768 0,-1.74159 -1.07866,-2.87643 -1.07867,-1.12361 -2.76408,-1.12361 -1.618,0 -2.71913,1.13484 -1.07867,1.13485 -1.07867,2.80902 z"
           style=""
           id="path4455" />
        <path
           d="m 343.75574,324.88153 3.20229,7.31469 3.35959,-8.14616 3.37082,8.14616 3.236,-7.31469 2.07867,0 -5.34838,11.5507 -3.33711,-8.04504 -3.34836,8.04504 -5.30343,-11.5507 2.08991,0 z"
           style=""
           id="path4457" />
      </g>
      <g
         style="font-style:normal;font-variant:normal;font-weight:normal;font-stretch:normal;font-size:23.01150513px;line-height:125%;font-family:'UPF Futura ND';-inkscape-font-specification:'UPF Futura ND';letter-spacing:0px;word-spacing:0px;fill:#5a403a;fill-opacity:1;stroke:none;stroke-width:1px;stroke-linecap:butt;stroke-linejoin:miter;stroke-opacity:1"
         id="text16530">
        <path
           d="m 170.37027,626.91357 0,15.53951 4.77533,0 0,1.809 -6.71918,0 0,-17.34851 1.94385,0 z"
           style=""
           id="path4446" />
        <path
           d="m 176.55011,638.80135 q 0,-2.31464 1.67418,-3.95511 1.67418,-1.64046 4.03375,-1.64046 2.40453,0 4.05623,1.6517 1.65171,1.64047 1.65171,4.03376 0,2.41575 -1.66294,4.04499 -1.62924,1.62923 -4.08994,1.62923 -2.39329,0 -4.02252,-1.66294 -1.64047,-1.67418 -1.64047,-4.10117 z m 1.88766,0.0337 q 0,1.79777 1.0562,2.92138 1.06743,1.13484 2.71913,1.13484 1.69665,0 2.77531,-1.11237 1.0899,-1.12361 1.0899,-2.88767 0,-1.7416 -1.07866,-2.87644 -1.07867,-1.12361 -2.76408,-1.12361 -1.61799,0 -2.71913,1.13484 -1.07867,1.13485 -1.07867,2.80903 z"
           style=""
           id="path4448" />
        <path
           d="m 190.8986,633.45297 3.20228,7.31469 3.35959,-8.14616 3.37083,8.14616 3.23599,-7.31469 2.07867,0 -5.34837,11.5507 -3.33712,-8.04504 -3.34835,8.04504 -5.30344,-11.5507 2.08992,0 z"
           style=""
           id="path4450" />
      </g>
      <g
         style="font-style:normal;font-variant:normal;font-weight:normal;font-stretch:normal;font-size:23.01150513px;line-height:125%;font-family:'UPF Futura ND';-inkscape-font-specification:'UPF Futura ND';letter-spacing:0px;word-spacing:0px;fill:#5a403a;fill-opacity:1;stroke:none;stroke-width:1px;stroke-linecap:butt;stroke-linejoin:miter;stroke-opacity:1"
         id="text16524">
        <path
           d="m 166.08454,444.05642 0,15.53951 4.77534,0 0,1.80901 -6.71918,0 0,-17.34852 1.94384,0 z"
           style=""
           id="path4439" />
        <path
           d="m 172.26439,455.9442 q 0,-2.31463 1.67418,-3.9551 1.67418,-1.64047 4.03375,-1.64047 2.40453,0 4.05623,1.6517 1.65171,1.64047 1.65171,4.03376 0,2.41576 -1.66295,4.04499 -1.62923,1.62923 -4.08993,1.62923 -2.39329,0 -4.02252,-1.66294 -1.64047,-1.67418 -1.64047,-4.10117 z m 1.88766,0.0337 q 0,1.79777 1.0562,2.92138 1.06742,1.13485 2.71913,1.13485 1.69665,0 2.77531,-1.11238 1.0899,-1.12361 1.0899,-2.88767 0,-1.7416 -1.07866,-2.87644 -1.07867,-1.12361 -2.76408,-1.12361 -1.618,0 -2.71913,1.13485 -1.07867,1.13484 -1.07867,2.80902 z"
           style=""
           id="path4441" />
        <path
           d="m 186.61287,450.59582 3.20229,7.31469 3.35959,-8.14616 3.37083,8.14616 3.23599,-7.31469 2.07867,0 -5.34837,11.5507 -3.33712,-8.04504 -3.34835,8.04504 -5.30344,-11.5507 2.08991,0 z"
           style=""
           id="path4443" />
      </g>
      <g
         style="font-style:normal;font-variant:normal;font-weight:normal;font-stretch:normal;font-size:23.01150513px;line-height:125%;font-family:'UPF Futura ND';-inkscape-font-specification:'UPF Futura ND';letter-spacing:0px;word-spacing:0px;fill:#5a403a;fill-opacity:1;stroke:none;stroke-width:1px;stroke-linecap:butt;stroke-linejoin:miter;stroke-opacity:1"
         id="text16518">
        <path
           d="m 403.22741,441.19927 0,15.53951 4.77534,0 0,1.80901 -6.71918,0 0,-17.34852 1.94384,0 z"
           style=""
           id="path4432" />
        <path
           d="m 409.40726,453.08705 q 0,-2.31463 1.67418,-3.9551 1.67417,-1.64047 4.03375,-1.64047 2.40452,0 4.05623,1.65171 1.6517,1.64046 1.6517,4.03375 0,2.41576 -1.66294,4.04499 -1.62923,1.62923 -4.08993,1.62923 -2.39329,0 -4.02252,-1.66294 -1.64047,-1.67417 -1.64047,-4.10117 z m 1.88766,0.0337 q 0,1.79777 1.05619,2.92138 1.06743,1.13485 2.71914,1.13485 1.69665,0 2.77531,-1.11237 1.0899,-1.12361 1.0899,-2.88768 0,-1.74159 -1.07866,-2.87644 -1.07867,-1.12361 -2.76408,-1.12361 -1.618,0 -2.71913,1.13485 -1.07867,1.13484 -1.07867,2.80902 z"
           style=""
           id="path4434" />
        <path
           d="m 423.75574,447.73868 3.20229,7.31469 3.35959,-8.14617 3.37082,8.14617 3.236,-7.31469 2.07867,0 -5.34838,11.55069 -3.33711,-8.04504 -3.34836,8.04504 -5.30343,-11.55069 2.08991,0 z"
           style=""
           id="path4436" />
      </g>
      <g
         style="font-style:normal;font-variant:normal;font-weight:normal;font-stretch:normal;font-size:23.01150513px;line-height:125%;font-family:'UPF Futura ND';-inkscape-font-specification:'UPF Futura ND';letter-spacing:0px;word-spacing:0px;fill:#5a403a;fill-opacity:1;stroke:none;stroke-width:1px;stroke-linecap:butt;stroke-linejoin:miter;stroke-opacity:1"
         id="text16512">
        <path
           d="m 368.94171,601.19927 0,15.53951 4.77533,0 0,1.80901 -6.71918,0 0,-17.34852 1.94385,0 z"
           style=""
           id="path4425" />
        <path
           d="m 375.12155,613.08705 q 0,-2.31463 1.67418,-3.9551 1.67418,-1.64047 4.03376,-1.64047 2.40452,0 4.05622,1.65171 1.65171,1.64046 1.65171,4.03375 0,2.41576 -1.66294,4.04499 -1.62924,1.62923 -4.08994,1.62923 -2.39328,0 -4.02252,-1.66294 -1.64047,-1.67417 -1.64047,-4.10117 z m 1.88767,0.0337 q 0,1.79777 1.05619,2.92138 1.06743,1.13485 2.71913,1.13485 1.69665,0 2.77531,-1.11237 1.08991,-1.12361 1.08991,-2.88768 0,-1.74159 -1.07867,-2.87644 -1.07866,-1.12361 -2.76408,-1.12361 -1.61799,0 -2.71913,1.13485 -1.07866,1.13484 -1.07866,2.80902 z"
           style=""
           id="path4427" />
        <path
           d="m 389.47004,607.73868 3.20228,7.31469 3.35959,-8.14617 3.37083,8.14617 3.23599,-7.31469 2.07868,0 -5.34838,11.55069 -3.33712,-8.04504 -3.34835,8.04504 -5.30344,-11.55069 2.08992,0 z"
           style=""
           id="path4429" />
      </g>
      <g
         style="font-style:normal;font-variant:normal;font-weight:normal;font-stretch:normal;font-size:23.01150513px;line-height:125%;font-family:'UPF Futura ND';-inkscape-font-specification:'UPF Futura ND';letter-spacing:0px;word-spacing:0px;fill:#5a403a;fill-opacity:1;stroke:none;stroke-width:1px;stroke-linecap:butt;stroke-linejoin:miter;stroke-opacity:1"
         id="text16506">
        <path
           d="m 481.79882,721.19927 0,15.53951 4.77534,0 0,1.80901 -6.71918,0 0,-17.34852 1.94384,0 z"
           style=""
           id="path4418" />
        <path
           d="m 487.97867,733.08705 q 0,-2.31463 1.67418,-3.9551 1.67417,-1.64047 4.03375,-1.64047 2.40453,0 4.05623,1.65171 1.6517,1.64046 1.6517,4.03375 0,2.41576 -1.66294,4.04499 -1.62923,1.62923 -4.08993,1.62923 -2.39329,0 -4.02252,-1.66294 -1.64047,-1.67417 -1.64047,-4.10117 z m 1.88766,0.0337 q 0,1.79777 1.0562,2.92138 1.06742,1.13485 2.71913,1.13485 1.69665,0 2.77531,-1.11237 1.0899,-1.12361 1.0899,-2.88768 0,-1.74159 -1.07866,-2.87644 -1.07867,-1.12361 -2.76408,-1.12361 -1.618,0 -2.71913,1.13485 -1.07867,1.13484 -1.07867,2.80902 z"
           style=""
           id="path4420" />
        <path
           d="m 502.32715,727.73868 3.20229,7.31469 3.35959,-8.14617 3.37082,8.14617 3.236,-7.31469 2.07867,0 -5.34837,11.55069 -3.33712,-8.04504 -3.34836,8.04504 -5.30343,-11.55069 2.08991,0 z"
           style=""
           id="path4422" />
      </g>
      <g
         style="font-style:normal;font-variant:normal;font-weight:normal;font-stretch:normal;font-size:23.01150513px;line-height:125%;font-family:'UPF Futura ND';-inkscape-font-specification:'UPF Futura ND';letter-spacing:0px;word-spacing:0px;fill:#5a403a;fill-opacity:1;stroke:none;stroke-width:1px;stroke-linecap:butt;stroke-linejoin:miter;stroke-opacity:1"
         id="text16500">
        <path
           d="m 548.94168,452.62783 0,15.53951 4.77533,0 0,1.80901 -6.71918,0 0,-17.34852 1.94385,0 z"
           style=""
           id="path4411" />
        <path
           d="m 555.12152,464.51561 q 0,-2.31463 1.67418,-3.9551 1.67418,-1.64047 4.03376,-1.64047 2.40452,0 4.05622,1.6517 1.65171,1.64047 1.65171,4.03376 0,2.41576 -1.66294,4.04499 -1.62924,1.62923 -4.08994,1.62923 -2.39329,0 -4.02252,-1.66294 -1.64047,-1.67417 -1.64047,-4.10117 z m 1.88767,0.0337 q 0,1.79777 1.05619,2.92138 1.06743,1.13485 2.71913,1.13485 1.69665,0 2.77531,-1.11238 1.0899,-1.1236 1.0899,-2.88767 0,-1.74159 -1.07866,-2.87644 -1.07866,-1.12361 -2.76408,-1.12361 -1.61799,0 -2.71913,1.13485 -1.07866,1.13484 -1.07866,2.80902 z"
           style=""
           id="path4413" />
        <path
           d="m 569.47001,459.16723 3.20228,7.3147 3.35959,-8.14617 3.37083,8.14617 3.23599,-7.3147 2.07868,0 -5.34838,11.5507 -3.33712,-8.04504 -3.34835,8.04504 -5.30344,-11.5507 2.08992,0 z"
           style=""
           id="path4415" />
      </g>
      <g
         style="font-style:normal;font-variant:normal;font-weight:normal;font-stretch:normal;font-size:23.01150513px;line-height:125%;font-family:'UPF Futura ND';-inkscape-font-specification:'UPF Futura ND';letter-spacing:0px;word-spacing:0px;fill:#ecb200;fill-opacity:1;stroke:none;stroke-width:4;stroke-linecap:butt;stroke-linejoin:miter;stroke-miterlimit:4;stroke-dasharray:none;stroke-opacity:1"
         id="text16494">
        <path
           d="m 273.01171,448.75721 8.86528,0 0,-7.05626 1.94384,0 0,17.34852 -1.94384,0 0,-8.48325 -8.86528,0 0,8.48325 -1.94384,0 0,-17.34852 1.94384,0 0,7.05626 z"
           style=""
           id="path4402" />
        <path
           d="m 289.6973,448.24035 0,10.80912 -1.85395,0 0,-10.80912 1.85395,0 z m -2.25845,-4.08993 q 0,-0.51686 0.39326,-0.91012 0.39327,-0.39327 0.9326,-0.39327 0.53933,0 0.93259,0.39327 0.39327,0.39326 0.39327,0.93259 0,0.55057 -0.39327,0.94383 -0.38202,0.38203 -0.93259,0.38203 -0.55057,0 -0.94383,-0.39326 -0.38203,-0.38203 -0.38203,-0.95507 z"
           style=""
           id="path4404" />
        <path
           d="m 303.34915,448.24035 0,10.57316 q 0,1.76407 -0.30338,2.77531 -0.29213,1.03372 -1.06742,1.84272 -1.4944,1.62924 -3.97758,1.62924 -2.28092,0 -3.78656,-1.40452 -1.48316,-1.39327 -1.48316,-3.56183 l 1.84271,0 q 0.13484,1.62923 1.00002,2.44946 0.86517,0.83147 2.44946,0.83147 1.73036,0 2.59554,-1.07866 0.87641,-1.06743 0.87641,-3.19105 l 0,-1.55058 q -1.57305,1.7753 -3.82027,1.7753 -2.19103,0 -3.66296,-1.60676 -1.47193,-1.64047 -1.47193,-4.03375 0,-2.46071 1.48317,-4.0787 1.4944,-1.62924 3.75285,-1.62924 2.21351,0 3.71914,1.78654 l 0,-1.52811 1.85396,0 z m -8.92145,5.4158 q 0,1.76406 0.97753,2.88767 0.98878,1.12361 2.5506,1.12361 1.58428,0 2.60677,-1.12361 1.02248,-1.12361 1.02248,-2.8652 0,-1.76407 -1.01125,-2.89891 -1.01124,-1.12361 -2.60677,-1.12361 -1.52811,0 -2.53935,1.13485 -1.00001,1.13484 -1.00001,2.8652 z"
           style=""
           id="path4406" />
        <path
           d="m 306.89975,440.07172 1.85396,0 0,9.43831 q 1.28091,-1.51687 3.10116,-1.51687 1.82024,0 2.8652,1.20226 0.85394,0.95507 0.85394,3.15734 l 0,6.69671 -1.85395,0 0,-6.57311 q 0,-1.48317 -0.5281,-2.13486 -0.5281,-0.66293 -1.70788,-0.66293 -0.71911,0 -1.23597,0.23596 -0.51686,0.22472 -0.85395,0.70787 -0.32584,0.48316 -0.48315,1.23597 -0.1573,0.75282 -0.1573,1.79778 l 0,5.39332 -1.85396,0 0,-18.97775 z"
           style=""
           id="path4408" />
      </g>
      <g
         style="font-style:normal;font-variant:normal;font-weight:normal;font-stretch:normal;font-size:23.01150513px;line-height:125%;font-family:'UPF Futura ND';-inkscape-font-specification:'UPF Futura ND';letter-spacing:0px;word-spacing:0px;fill:#ecb200;fill-opacity:1;stroke:none;stroke-width:4;stroke-linecap:butt;stroke-linejoin:miter;stroke-miterlimit:4;stroke-dasharray:none;stroke-opacity:1"
         id="text16488">
        <path
           d="m 275.86886,731.61436 8.86527,0 0,-7.05626 1.94385,0 0,17.34852 -1.94385,0 0,-8.48325 -8.86527,0 0,8.48325 -1.94384,0 0,-17.34852 1.94384,0 0,7.05626 z"
           style=""
           id="path4393" />
        <path
           d="m 292.55445,731.0975 0,10.80912 -1.85395,0 0,-10.80912 1.85395,0 z m -2.25845,-4.08993 q 0,-0.51686 0.39326,-0.91013 0.39326,-0.39326 0.93259,-0.39326 0.53934,0 0.9326,0.39326 0.39326,0.39327 0.39326,0.9326 0,0.55057 -0.39326,0.94383 -0.38203,0.38203 -0.9326,0.38203 -0.55056,0 -0.94383,-0.39327 -0.38202,-0.38202 -0.38202,-0.95506 z"
           style=""
           id="path4395" />
        <path
           d="m 306.2063,731.0975 0,10.57316 q 0,1.76406 -0.30338,2.77531 -0.29214,1.03372 -1.06743,1.84272 -1.4944,1.62923 -3.97757,1.62923 -2.28093,0 -3.78656,-1.40451 -1.48317,-1.39327 -1.48317,-3.56184 l 1.84272,0 q 0.13483,1.62923 1.00001,2.44947 0.86518,0.83147 2.44947,0.83147 1.73036,0 2.59554,-1.07866 0.87641,-1.06743 0.87641,-3.19105 l 0,-1.55058 q -1.57305,1.7753 -3.82027,1.7753 -2.19104,0 -3.66296,-1.60676 -1.47193,-1.64047 -1.47193,-4.03376 0,-2.4607 1.48316,-4.0787 1.4944,-1.62923 3.75286,-1.62923 2.21351,0 3.71914,1.78654 l 0,-1.52811 1.85396,0 z m -8.92146,5.41579 q 0,1.76407 0.97754,2.88768 0.98878,1.12361 2.55059,1.12361 1.58429,0 2.60678,-1.12361 1.02248,-1.12361 1.02248,-2.8652 0,-1.76407 -1.01125,-2.89891 -1.01125,-1.12361 -2.60677,-1.12361 -1.52811,0 -2.53936,1.13484 -1.00001,1.13485 -1.00001,2.8652 z"
           style=""
           id="path4397" />
        <path
           d="m 309.7569,722.92887 1.85395,0 0,9.43831 q 1.28092,-1.51687 3.10116,-1.51687 1.82025,0 2.86521,1.20226 0.85394,0.95507 0.85394,3.15734 l 0,6.69671 -1.85396,0 0,-6.57311 q 0,-1.48317 -0.52809,-2.13486 -0.5281,-0.66293 -1.70789,-0.66293 -0.71911,0 -1.23597,0.23596 -0.51686,0.22472 -0.85394,0.70787 -0.32585,0.48315 -0.48315,1.23597 -0.15731,0.75282 -0.15731,1.79777 l 0,5.39333 -1.85395,0 0,-18.97775 z"
           style=""
           id="path4399" />
      </g>
      <g
         style="font-style:normal;font-variant:normal;font-weight:normal;font-stretch:normal;font-size:23.01150513px;line-height:125%;font-family:'UPF Futura ND';-inkscape-font-specification:'UPF Futura ND';letter-spacing:0px;word-spacing:0px;fill:#ecb200;fill-opacity:1;stroke:none;stroke-width:4;stroke-linecap:butt;stroke-linejoin:miter;stroke-miterlimit:4;stroke-dasharray:none;stroke-opacity:1"
         id="text16482">
        <path
           d="m 544.44143,600.18687 8.86527,0 0,-7.05626 1.94385,0 0,17.34852 -1.94385,0 0,-8.48325 -8.86527,0 0,8.48325 -1.94384,0 0,-17.34852 1.94384,0 0,7.05626 z"
           style=""
           id="path4384" />
        <path
           d="m 561.12702,599.67001 0,10.80912 -1.85395,0 0,-10.80912 1.85395,0 z m -2.25845,-4.08993 q 0,-0.51686 0.39326,-0.91013 0.39326,-0.39326 0.9326,-0.39326 0.53933,0 0.93259,0.39326 0.39326,0.39327 0.39326,0.9326 0,0.55057 -0.39326,0.94383 -0.38203,0.38203 -0.93259,0.38203 -0.55057,0 -0.94384,-0.39327 -0.38202,-0.38202 -0.38202,-0.95506 z"
           style=""
           id="path4386" />
        <path
           d="m 574.77887,599.67001 0,10.57316 q 0,1.76406 -0.30338,2.77531 -0.29214,1.03372 -1.06743,1.84272 -1.4944,1.62923 -3.97757,1.62923 -2.28093,0 -3.78656,-1.40451 -1.48317,-1.39327 -1.48317,-3.56184 l 1.84272,0 q 0.13484,1.62923 1.00001,2.44947 0.86518,0.83147 2.44947,0.83147 1.73036,0 2.59554,-1.07867 0.87641,-1.06742 0.87641,-3.19104 l 0,-1.55058 q -1.57305,1.7753 -3.82027,1.7753 -2.19103,0 -3.66296,-1.60676 -1.47193,-1.64047 -1.47193,-4.03376 0,-2.4607 1.48316,-4.0787 1.4944,-1.62923 3.75286,-1.62923 2.21351,0 3.71914,1.78654 l 0,-1.52811 1.85396,0 z m -8.92146,5.41579 q 0,1.76407 0.97754,2.88768 0.98878,1.12361 2.55059,1.12361 1.58429,0 2.60678,-1.12361 1.02248,-1.12361 1.02248,-2.8652 0,-1.76407 -1.01125,-2.89891 -1.01125,-1.12361 -2.60677,-1.12361 -1.52811,0 -2.53935,1.13484 -1.00002,1.13485 -1.00002,2.8652 z"
           style=""
           id="path4388" />
        <path
           d="m 578.32947,591.50138 1.85395,0 0,9.43831 q 1.28092,-1.51687 3.10116,-1.51687 1.82025,0 2.86521,1.20226 0.85394,0.95507 0.85394,3.15734 l 0,6.69671 -1.85396,0 0,-6.57311 q 0,-1.48317 -0.52809,-2.13486 -0.5281,-0.66293 -1.70789,-0.66293 -0.71911,0 -1.23597,0.23596 -0.51686,0.22472 -0.85394,0.70787 -0.32584,0.48315 -0.48315,1.23597 -0.15731,0.75282 -0.15731,1.79777 l 0,5.39333 -1.85395,0 0,-18.97775 z"
           style=""
           id="path4390" />
      </g>
      <g
         style="font-style:normal;font-variant:normal;font-weight:normal;font-stretch:normal;font-size:23.01150513px;line-height:125%;font-family:'UPF Futura ND';-inkscape-font-specification:'UPF Futura ND';letter-spacing:0px;word-spacing:0px;fill:#ecb200;fill-opacity:1;stroke:none;stroke-width:4;stroke-linecap:butt;stroke-linejoin:miter;stroke-miterlimit:4;stroke-dasharray:none;stroke-opacity:1"
         id="text16476">
        <path
           d="m 678.72714,675.90117 8.86527,0 0,-7.05627 1.94384,0 0,17.34852 -1.94384,0 0,-8.48324 -8.86527,0 0,8.48324 -1.94385,0 0,-17.34852 1.94385,0 0,7.05627 z"
           style=""
           id="path4375" />
        <path
           d="m 695.41273,675.38431 0,10.80911 -1.85396,0 0,-10.80911 1.85396,0 z m -2.25846,-4.08994 q 0,-0.51686 0.39327,-0.91012 0.39326,-0.39327 0.93259,-0.39327 0.53933,0 0.9326,0.39327 0.39326,0.39326 0.39326,0.93259 0,0.55057 -0.39326,0.94383 -0.38203,0.38203 -0.9326,0.38203 -0.55057,0 -0.94383,-0.39326 -0.38203,-0.38203 -0.38203,-0.95507 z"
           style=""
           id="path4377" />
        <path
           d="m 709.06457,675.38431 0,10.57315 q 0,1.76407 -0.30337,2.77532 -0.29214,1.03372 -1.06743,1.84271 -1.4944,1.62924 -3.97758,1.62924 -2.28092,0 -3.78656,-1.40451 -1.48316,-1.39328 -1.48316,-3.56184 l 1.84272,0 q 0.13483,1.62923 1.00001,2.44946 0.86518,0.83147 2.44947,0.83147 1.73035,0 2.59553,-1.07866 0.87642,-1.06743 0.87642,-3.19105 l 0,-1.55058 q -1.57305,1.7753 -3.82027,1.7753 -2.19104,0 -3.66297,-1.60676 -1.47192,-1.64047 -1.47192,-4.03375 0,-2.46071 1.48316,-4.0787 1.4944,-1.62923 3.75285,-1.62923 2.21351,0 3.71915,1.78653 l 0,-1.5281 1.85395,0 z m -8.92145,5.41579 q 0,1.76406 0.97754,2.88767 0.98877,1.12361 2.55059,1.12361 1.58429,0 2.60677,-1.12361 1.02249,-1.12361 1.02249,-2.8652 0,-1.76406 -1.01125,-2.89891 -1.01125,-1.12361 -2.60677,-1.12361 -1.52811,0 -2.53936,1.13485 -1.00001,1.13484 -1.00001,2.8652 z"
           style=""
           id="path4379" />
        <path
           d="m 712.61518,667.21567 1.85395,0 0,9.43831 q 1.28091,-1.51687 3.10116,-1.51687 1.82025,0 2.8652,1.20226 0.85394,0.95507 0.85394,3.15734 l 0,6.69671 -1.85395,0 0,-6.57311 q 0,-1.48316 -0.5281,-2.13486 -0.52809,-0.66293 -1.70788,-0.66293 -0.71911,0 -1.23597,0.23596 -0.51686,0.22472 -0.85394,0.70788 -0.32585,0.48315 -0.48315,1.23597 -0.15731,0.75281 -0.15731,1.79777 l 0,5.39332 -1.85395,0 0,-18.97775 z"
           style=""
           id="path4381" />
      </g>
      <g
         style="font-style:normal;font-variant:normal;font-weight:normal;font-stretch:normal;font-size:23.01150513px;line-height:125%;font-family:'UPF Futura ND';-inkscape-font-specification:'UPF Futura ND';letter-spacing:0px;word-spacing:0px;fill:#ecb200;fill-opacity:1;stroke:none;stroke-width:4;stroke-linecap:butt;stroke-linejoin:miter;stroke-miterlimit:4;stroke-dasharray:none;stroke-opacity:1"
         id="text16470">
        <path
           d="m 677.29855,410.18687 8.86527,0 0,-7.05626 1.94384,0 0,17.34852 -1.94384,0 0,-8.48325 -8.86527,0 0,8.48325 -1.94384,0 0,-17.34852 1.94384,0 0,7.05626 z"
           style=""
           id="path4366" />
        <path
           d="m 693.98414,409.67001 0,10.80912 -1.85396,0 0,-10.80912 1.85396,0 z m -2.25846,-4.08993 q 0,-0.51686 0.39327,-0.91013 0.39326,-0.39326 0.93259,-0.39326 0.53933,0 0.9326,0.39326 0.39326,0.39327 0.39326,0.9326 0,0.55057 -0.39326,0.94383 -0.38203,0.38203 -0.9326,0.38203 -0.55057,0 -0.94383,-0.39327 -0.38203,-0.38202 -0.38203,-0.95506 z"
           style=""
           id="path4368" />
        <path
           d="m 707.63598,409.67001 0,10.57316 q 0,1.76406 -0.30337,2.77531 -0.29214,1.03372 -1.06743,1.84272 -1.4944,1.62923 -3.97757,1.62923 -2.28093,0 -3.78657,-1.40451 -1.48316,-1.39327 -1.48316,-3.56184 l 1.84272,0 q 0.13483,1.62923 1.00001,2.44947 0.86518,0.83147 2.44947,0.83147 1.73036,0 2.59553,-1.07867 0.87642,-1.06742 0.87642,-3.19104 l 0,-1.55058 q -1.57305,1.7753 -3.82027,1.7753 -2.19104,0 -3.66297,-1.60676 -1.47192,-1.64047 -1.47192,-4.03376 0,-2.4607 1.48316,-4.0787 1.4944,-1.62923 3.75285,-1.62923 2.21351,0 3.71915,1.78654 l 0,-1.52811 1.85395,0 z m -8.92145,5.41579 q 0,1.76407 0.97754,2.88768 0.98878,1.12361 2.55059,1.12361 1.58429,0 2.60677,-1.12361 1.02249,-1.12361 1.02249,-2.8652 0,-1.76407 -1.01125,-2.89891 -1.01125,-1.12361 -2.60677,-1.12361 -1.52811,0 -2.53936,1.13484 -1.00001,1.13485 -1.00001,2.8652 z"
           style=""
           id="path4370" />
        <path
           d="m 711.18659,401.50138 1.85395,0 0,9.43831 q 1.28092,-1.51687 3.10116,-1.51687 1.82025,0 2.8652,1.20226 0.85395,0.95507 0.85395,3.15734 l 0,6.69671 -1.85396,0 0,-6.57311 q 0,-1.48317 -0.52809,-2.13486 -0.5281,-0.66293 -1.70789,-0.66293 -0.71911,0 -1.23597,0.23596 -0.51686,0.22472 -0.85394,0.70787 -0.32585,0.48315 -0.48315,1.23597 -0.15731,0.75282 -0.15731,1.79777 l 0,5.39333 -1.85395,0 0,-18.97775 z"
           style=""
           id="path4372" />
      </g>
    </g>
  </g>
</svg>
